Rによるデータ解析のための前処理 - 2 データ整形および操作: tidyr, dplyrパッケージの基礎
…
nest()はデータフレームを第一引数にとり、関数内で指定されたデータフレーム中の変数を別のデータフレームとして処理し、入れ子のように新たな変数として格納する。このような、大きさ(データフレームの場合は行数)が異なるデータを、データフレームの一変数として扱うデータ構造を本書では入れ子データ nested data frameと呼ぶ。

nest()により、入れ子としてまとめられるデータは変数dataに格納される（これは引数keyで指定した名前に変更することができる）。入れ子のデータを確認するには、変数dataを参照する。

# spがa_1の値かならるデータを格納する
df_nest$data[[1]]

# A tibble: 24 × 2
   period height
   <chr>   <dbl>
 1 201504   147.
 2 201505   148.
 3 201506   149.
 4 201507   149.
 5 201508   149.
 6 201509   149.
 7 201510   149.
 8 201511   149.
 9 201512   150.
10 201601   150.
# … with 14 more rows
…
d$height[2] - d$height[1]

[1] 0.16

ここで2015年4月と次の調査時期である2015年5月の値を見ると、1増えていることがわかる。これをlag()で算出しよう。

d %>%
  mutate(growth = height - lag(height))

# A tibble: 24 × 4
   sp    period height  growth
   <chr> <chr>   <dbl>   <dbl>
 1 a_1   201504   147. NA     
 2 a_1   201505   148.  0.160 
 3 a_1   201506   149.  1.17  
 4 a_1   201507   149.  0.0800
 5 a_1   201508   149.  0.220 
 6 a_1   201509   149.  0.170 
 7 a_1   201510   149.  0.160 
 8 a_1   201511   149.  0.150 
 9 a_1   201512   150.  0.110 
10 a_1   201601   150.  0.0400
# … with 14 more rows
…
# 各グループのcarbの値がユニークに処理される
grp_mtcars %>% distinct(carb, .keep_all = TRUE) %>%
  nrow()

[1] 9

ベクトルの値を前後にずらすlead-lagもグループ化されたデータが対象の際に挙動が変化する。これを利用して、1個体分の高さ成長量を求めた処理を植物データ全体に適用可能になる。

df_long %>%
  arrange(sp, period) %>%
  group_by(sp) %>%
  mutate(growth = height - lag(height)) %>%
  ungroup()

# A tibble: 120 × 4
   sp    period height  growth
   <chr> <chr>   <dbl>   <dbl>
 1 a_1   201504   147. NA     
 2 a_1   201505   148.  0.160 
 3 a_1   201506   149.  1.17  
 4 a_1   201507   149.  0.0800
 5 a_1   201508   149.  0.220 
 6 a_1   201509   149.  0.170 
 7 a_1   201510   149.  0.160 
 8 a_1   201511   149.  0.150 
 9 a_1   201512   150.  0.110 
10 a_1   201601   150.  0.0400
# … with 110 more rows
…
