Rによるデータ解析のための前処理 - 3 表形式のデータソースからのデータ取得
…
cols()は関数であるので、読み込みを実行するread_*()とは独立してオブジェクト化しておくと、同様の構造を持ったデータに対して使いまわせる。次の例は、あらかじめ各列をどのようなデータ型として扱うかを定義しておくもので、一部の変数については_によって読み込みから除外している。

data_vars <-
  cols(post_id     = "_",
       post_time   = "c",
       user_id     = "c",
       address     = "_",
       place_name  = "_")

read_csv("data/sns.csv",
         # 指定を省略した変数は自動的に判定されたデータ型が適用される
         col_types = data_vars)

# A tibble: 1,000 × 3
   post_time            user_id    nationality
   <chr>                <chr>      <chr>      
 1 2016-04-01T09:37:43Z A-8vImElYu US         
 2 2016-04-01T20:54:12Z A-zpNoCiF2 TH         
 3 2016-04-01T22:01:57Z C-hbtHidIz HK         
 4 2016-04-01T22:13:21Z B-QUU841zl ID         
 5 2016-04-02T08:18:09Z B-JzaPVHpY US         
 6 2016-04-02T11:16:27Z A-G6sGnoFV AU         
 7 2016-04-02T20:06:11Z C-NxooWvcI SG         
 8 2016-04-02T22:47:24Z C-xeQ41RtH CN         
 9 2016-04-03T00:26:41Z B-FkHjECs0 HK         
10 2016-04-03T01:36:18Z C-Bd0DCcdp TH         
# … with 990 more rows
…
Rでは、ファイル読み込み関数の実行時にファイルに対するエンコードを指定して文字化けを回避できる。readrにおいては locale引数でlocale()という関数を実行する。locale()は、ロケールに関する設定を定義する関数であり、その中にエンコードを指定するencoding引数が用意されている。すなわち、先のファイルを適切に読み込むには次のコードを実行する必要がある。

# readrパッケージではlocale引数でエンコードを指定したlocale()実行する
read_csv("data/housekeeping_cp932.csv", 
         locale = locale(encoding = "cp932"))

ロケールの指定は文字列のエンコードだけでなく、日付・時間に関しても指定が可能である。次の例は、同一のファイルに対して時間のロケールを変更した処理である。

read_csv("data/sns.csv", 
              locale = locale(tz = "UTC"),
              col_types = cols_only(post_time = "T"))

# A tibble: 1,000 × 1
   post_time          
   <dttm>             
 1 2016-04-01 09:37:43
 2 2016-04-01 20:54:12
 3 2016-04-01 22:01:57
 4 2016-04-01 22:13:21
 5 2016-04-02 08:18:09
 6 2016-04-02 11:16:27
 7 2016-04-02 20:06:11
 8 2016-04-02 22:47:24
 9 2016-04-03 00:26:41
10 2016-04-03 01:36:18
# … with 990 more rows

read_csv("data/sns.csv", 
         locale = locale(tz = "Asia/Tokyo"),
         col_types = cols_only(post_time = "T"))

# A tibble: 1,000 × 1
   post_time          
   <dttm>             
 1 2016-04-01 18:37:43
 2 2016-04-02 05:54:12
 3 2016-04-02 07:01:57
 4 2016-04-02 07:13:21
 5 2016-04-02 17:18:09
 6 2016-04-02 20:16:27
 7 2016-04-03 05:06:11
 8 2016-04-03 07:47:24
 9 2016-04-03 09:26:41
10 2016-04-03 10:36:18
# … with 990 more rows

read_csv("data/sns.csv", 
         locale = locale(tz = "US/Arizona"),
         col_types = cols_only(post_time = "T"))

# A tibble: 1,000 × 1
   post_time          
   <dttm>             
 1 2016-04-01 02:37:43
 2 2016-04-01 13:54:12
 3 2016-04-01 15:01:57
 4 2016-04-01 15:13:21
 5 2016-04-02 01:18:09
 6 2016-04-02 04:16:27
 7 2016-04-02 13:06:11
 8 2016-04-02 15:47:24
 9 2016-04-02 17:26:41
10 2016-04-02 18:36:18
# … with 990 more rows
…
読み込みの行数を制御するオプション。skip引数で指定した行数が除外され、n_maxで読み込み対象にする行数を指定する。

3.2.1 シート指定の読み込み

# 対象のエクセルファイルのシート一覧を取得
excel_sheets("data/housekeeping.xlsx")

[1] "Sheet1" "7月"   

エクセルファイルの読み込みを実行するread_excel()の基本的な使い方は、他のファイル読み込み関数と変わらず、読み込みの対象とするファイル名を第一引数に指定する。しかしエクセルファイルにはシートと呼ばれる機能があり、いわば一つのファイル中で複数のデータを格納することができるため、読み込み対象のシートについてもsheet引数で指定する必要がある。これを指定しない場合、read_excel()は一番目のシートを読み込む。

read_excel("data/housekeeping.xlsx",
           sheet = 1)

# A tibble: 35 × 4
   日付                項目        金額 備考    
   <dttm>              <chr>      <dbl> <chr>   
 1 2009-05-10 00:00:00 帽子、洋服  9000 なし    
 2 2009-05-18 00:00:00 靴、カバン 20000 なし    
 3 2009-05-24 00:00:00 カメラ     40000 一眼レフ
 4 2009-05-29 00:00:00 飲み代      4000 <NA>    
 5 2009-06-05 00:00:00 散髪代      5000 なし    
 6 2009-06-13 00:00:00 本          4000 なし    
 7 2009-06-17 00:00:00 おもちゃ    5000 なし    
 8 2009-06-24 00:00:00 洋服       10000 <NA>    
 9 2009-06-25 00:00:00 靴          5000 <NA>    
10 2009-06-28 00:00:00 電車代etc.  5000 <NA>    
# … with 25 more rows
…
