Rによるデータ解析のための前処理 - 6 tidyverseの組み合わせ
…
Rows: 1000 Columns: 6
── Column specification ────────────────────────────────────────────────────────
Delimiter: ","
chr  (5): post_id, address, place_name, user_id, nationality
dttm (1): post_time

ℹ Use `spec()` to retrieve the full column specification for this data.
ℹ Specify the column types or set `show_col_types = FALSE` to quiet this message.

# データの先頭行および各変数のデータ型を確認
df_sns

# A tibble: 1,000 × 6
   post_id      post_time           address       place_name user_id nationality
   <chr>        <dttm>              <chr>         <chr>      <chr>   <chr>      
 1 EM7O3RINyaLS 2016-04-01 09:37:43 石川県鳳珠郡… <NA>       A-8vIm… US         
 2 vrpVbF83Kqhi 2016-04-01 20:54:12 大阪府大阪市… Gudetama … A-zpNo… TH         
 3 vwPvcEXCOa67 2016-04-01 22:01:57 大阪府泉南郡… 南海電鐵 … C-hbtH… HK         
 4 KPkonKKzmTep 2016-04-01 22:13:21 福島県福島市… <NA>       B-QUU8… ID         
 5 rwaUYGGTYoqz 2016-04-02 08:18:09 千葉県成田市… Tokyo,…    B-JzaP… US         
 6 ymuZbb5Mds54 2016-04-02 11:16:27 東京都江東区… Totem-Cir… A-G6sG… AU         
 7 yeQWTgSsvPYJ 2016-04-02 20:06:11 長崎県佐世保… Huis Ten … C-Nxoo… SG         
 8 beG3YjOzN4ac 2016-04-02 22:47:24 熊本県上益城… <NA>       C-xeQ4… CN         
 9 ZZzCIGx6H5j7 2016-04-03 00:26:41 福岡県福岡市… <NA>       B-FkHj… HK         
10 GNam2fNqbeiE 2016-04-03 01:36:18 東京都江戸川… <NA>       C-Bd0D… TH         
# … with 990 more rows
…
まずlubridate::as_date()で日付・時間の変数を日付へと変換する。次にユーザごとの処理を適用するためにgroup_by()を実行し、ユーザごとのデータの集計値としてsummarise()で投稿の回数をn()で、最初と最後の投稿時間をfirst()およびlast()を使って求めている。

df_sns_user_session <- 
  df_sns %>% 
  # 日付・時間の変数を日付データに変換した列を追加
  mutate(date = as_date(post_time)) %>% 
  group_by(user_id) %>% 
  # 投稿の回数, 投稿日時から最初と最後のデータを取得する
  summarise(n          = n(),
            first_post = first(date),
            last_post  = last(date))

df_sns_user_session

# A tibble: 775 × 4
   user_id        n first_post last_post 
   <chr>      <int> <date>     <date>    
 1 A-0baeebfD     2 2016-05-12 2016-07-13
 2 A-0BKhYkbN     1 2016-06-18 2016-06-18
 3 A-0c8xSlst     2 2016-05-07 2016-05-14
 4 A-0fASEKnR     1 2016-05-15 2016-05-15
 5 A-0G36mkoc     1 2016-06-06 2016-06-06
 6 A-0YECSFRb     1 2016-04-08 2016-04-08
 7 A-1dtiP8Yq     2 2016-06-03 2016-06-18
 8 A-1kIsN3FU     1 2016-05-27 2016-05-27
 9 A-1MbeVyol     1 2016-06-15 2016-06-15
10 A-1Po7EMHT     1 2016-06-25 2016-06-25
# … with 765 more rows

この出力は、ユーザID user_id、投稿回数 n、投稿を行った最初と最後の日付 first_postおよびlast_postである。続いて、各ユーザの最初の投稿日と最後の投稿日からlubridate::interval()を使ってデータ中の利用期間を求める。ここで投稿が一度しかないユーザは、利用期間が0となる。また、interval()によって算出されるIntervalオブジェクトの結果を理解しやすくするため、期間を日数に変換した列を作成する。

df_sns_user_session_period <- 
  df_sns_user_session %>% 
  transmute(user_id,
            n,
            usage_period      = interval(first_post, last_post),
            usage_period_days = as.numeric(usage_period, "days"))

df_sns_user_session_period

# A tibble: 775 × 4
   user_id        n usage_period                   usage_period_days
   <chr>      <int> <Interval>                                 <dbl>
 1 A-0baeebfD     2 2016-05-12 UTC--2016-07-13 UTC                62
 2 A-0BKhYkbN     1 2016-06-18 UTC--2016-06-18 UTC                 0
 3 A-0c8xSlst     2 2016-05-07 UTC--2016-05-14 UTC                 7
 4 A-0fASEKnR     1 2016-05-15 UTC--2016-05-15 UTC                 0
 5 A-0G36mkoc     1 2016-06-06 UTC--2016-06-06 UTC                 0
 6 A-0YECSFRb     1 2016-04-08 UTC--2016-04-08 UTC                 0
 7 A-1dtiP8Yq     2 2016-06-03 UTC--2016-06-18 UTC                15
 8 A-1kIsN3FU     1 2016-05-27 UTC--2016-05-27 UTC                 0
 9 A-1MbeVyol     1 2016-06-15 UTC--2016-06-15 UTC                 0
10 A-1Po7EMHT     1 2016-06-25 UTC--2016-06-25 UTC                 0
# … with 765 more rows
…
df_sns_yr <- 
  df_sns %>%
  transmute(
    user_id,
    # 日付・時間の変数 post_timeの値から年、月を抽出
    post_ym = str_c(year(post_time), 
                    # 月の桁数を2桁に揃えるためにstringr::str_pad()を利用
                    str_pad(month(post_time), width = 2, pad = "0")))

ここでは、ユーザを識別するための user_id列以外の列は不要となるため、transmutate()を利用した。年および月の値の抽出にはlubridateの関数を使っている。また月の値が1,12と桁数が異なるため、stringr::str_pad()による桁揃えを実行した。これにより作成されたdf_sns_yrは次のようになっている。

df_sns_yr

# A tibble: 1,000 × 2
   user_id    post_ym
   <chr>      <chr>  
 1 A-8vImElYu 201604 
 2 A-zpNoCiF2 201604 
 3 C-hbtHidIz 201604 
 4 B-QUU841zl 201604 
 5 B-JzaPVHpY 201604 
 6 A-G6sGnoFV 201604 
 7 C-NxooWvcI 201604 
 8 C-xeQ41RtH 201604 
 9 B-FkHjECs0 201604 
10 C-Bd0DCcdp 201604 
# … with 990 more rows
…
続いて、国籍・曜日別の投稿件数を調べるという処理を示す。曜日の情報は次のようにlubridate::wday()を使うことで、日付の要素を含んだデータから簡単に求めることができる。

df_sns_wod <- 
  df_sns %>% 
  # 国籍の情報がない行を除外
  filter(!is.na(nationality)) %>% 
  transmute(nationality,
            # 投稿時間から曜日を取得。日本語での表記を採用するため
            # locale引数を調整する
            wod = wday(post_time, label = TRUE, abbr = TRUE, locale = "ja_JP.UTF-8"))

df_sns_wod

# A tibble: 979 × 2
   nationality wod  
   <chr>       <ord>
 1 US          金   
 2 TH          金   
 3 HK          金   
 4 ID          金   
 5 US          土   
 6 AU          土   
 7 SG          土   
 8 CN          土   
 9 HK          日   
10 TH          日   
# … with 969 more rows
…
ベクトルでの結果を確認したら、次はその処理をdplyrを使いデータフレームへ適用しよう。変数の参照にデータフレームのオブジェクト名とドル記号を省略し、変数名を直接指定したものを、transmute()あるいはmutate()へとコピーペーストするだけで良い。

# transmute内の変数への処理は上記のコードをコピーペーストしたもの
df_sns %>% 
  transmute(address,
            geo_prefecture = str_replace(address, "(東京都|道|府|県).+", "\\1"),
            geo_city       = str_split(address, "(東京都|道|府|県)", n = 2) %>% 
              map_chr(2) %>% 
              str_replace(string      = ., 
                          pattern     = "(区|市|.+市 .+区|町|村).+", 
                          replacement =  "\\1"))

# A tibble: 1,000 × 3
   address                         geo_prefecture geo_city       
   <chr>                           <chr>          <chr>          
 1 石川県鳳珠郡 能登町             石川県         鳳珠郡 能登町  
 2 大阪府大阪市 北区角田町5        大阪府         大阪市 北区    
 3 大阪府泉南郡 田尻町泉州空港中1  大阪府         泉南郡 田尻町  
 4 福島県福島市入江町1             福島県         福島市         
 5 千葉県成田市木の根3             千葉県         成田市         
 6 東京都江東区青海一丁目1         東京都         江東区         
 7 長崎県佐世保市ハウステンボス町8 長崎県         佐世保市       
 8 熊本県上益城郡 嘉島町           熊本県         上益城郡 嘉島町
 9 福岡県福岡市 中央区             福岡県         福岡市         
10 東京都江戸川区東葛西五丁目19    東京都         江戸川区       
# … with 990 more rows
…
df_sns_nest_nations %>% 
  transmute(
    nationality,
    max_n = map(data, ~
      .x %>% 
        count(user_id) %>% 
        top_n(3, wt = n))
  ) %>% 
  unnest()

Warning: `cols` is now required when using unnest().
Please use `cols = c(max_n)`

# A tibble: 165 × 3
   nationality user_id        n
   <chr>       <chr>      <int>
 1 US          A-Tz38wKFN     3
 2 US          C-EWrFgfFO     3
 3 US          C-vXf2Pfso     3
 4 TH          A-hmIIeiyU     3
 5 TH          B-3rIzdYs2    10
 6 TH          C-v48Px9pW     4
 7 TH          C-VaZADtzv     3
 8 HK          C-3njvd4vb     9
 9 HK          C-hbtHidIz     5
10 HK          C-OvYgclto     5
# … with 155 more rows
…
