Rによるデータ解析のための前処理 - 7 オープンデータの整形
…
── Column specification ────────────────────────────────────────────────────────
cols(
  type = col_character(),
  unit = col_character(),
  gender = col_character(),
  percent = col_character(),
  school = col_character()
)

df_age_height

# A tibble: 2,184 × 8
   type                   unit  gender percent school   age fiscal_year value
   <chr>                  <chr> <chr>  <chr>   <chr>  <dbl>       <dbl> <dbl>
 1 身長のパーセンタイル値 (cm)  男     3%      幼稚園     5        2013  102.
 2 身長のパーセンタイル値 (cm)  男     3%      幼稚園     5        2012  102.
 3 身長のパーセンタイル値 (cm)  男     3%      小学校     6        2013  108.
 4 身長のパーセンタイル値 (cm)  男     3%      小学校     6        2012  108.
 5 身長のパーセンタイル値 (cm)  男     3%      小学校     7        2013  113 
 6 身長のパーセンタイル値 (cm)  男     3%      小学校     7        2012  113.
 7 身長のパーセンタイル値 (cm)  男     3%      小学校     8        2013  118.
 8 身長のパーセンタイル値 (cm)  男     3%      小学校     8        2012  119.
 9 身長のパーセンタイル値 (cm)  男     3%      小学校     9        2013  123.
10 身長のパーセンタイル値 (cm)  男     3%      小学校     9        2012  123.
# … with 2,174 more rows
…
df_weather %>% 
  # extract(`平均気温(℃)`, into = "temp_mean", convert = TRUE) %>% 
  # extract(`最低気温(℃)`, into = "temp_min", convert = TRUE) %>% 
  # extract(`最高気温(℃)`, into = "temp_max", convert = TRUE) %>% 
  gather(type, value, -date, convert = TRUE) %>% 
  type_convert()

── Column specification ────────────────────────────────────────────────────────
cols(
  type = col_character()
)

# A tibble: 2,555 × 3
   date       type            value
   <date>     <chr>           <dbl>
 1 2017-01-01 平均気温(℃)...2   4  
 2 2017-01-02 平均気温(℃)...2   3.9
 3 2017-01-03 平均気温(℃)...2   4.8
 4 2017-01-04 平均気温(℃)...2   5.7
 5 2017-01-05 平均気温(℃)...2   3.6
 6 2017-01-06 平均気温(℃)...2   0.7
 7 2017-01-07 平均気温(℃)...2   0.8
 8 2017-01-08 平均気温(℃)...2   3  
 9 2017-01-09 平均気温(℃)...2   5.6
10 2017-01-10 平均気温(℃)...2   6  
# … with 2,545 more rows
…
